[{
    "total_chapter" : 4,
    "completed_chapter" : 2,
    "name" : "How to be a Call centre agent",
    "img" : "/courses/assets/img/call_centre.png"
},{
    "total_chapter" : 6,
    "completed_chapter" : 4,
    "name" : "How to manage your money",
    "img" : "/courses/assets/img/manage_money.png"
}]